<?xml version="1.0" encoding="utf-8"?>
<!-- Generator: Adobe Illustrator 21.0.0, SVG Export Plug-In . SVG Version: 6.00 Build 0)  -->
<svg version="1.1" id="Layer_1" xmlns="http://www.w3.org/2000/svg" xmlns:xlink="http://www.w3.org/1999/xlink" x="0px" y="0px"
	 viewBox="0 0 1390 754" style="enable-background:new 0 0 1390 754;" xml:space="preserve">
<style type="text/css">
	.st0{opacity:0.21;fill:#3C74F3;enable-background:new    ;}
	.st1{opacity:0.86;}
	.st2{clip-path:url(#SVGID_2_);}
	.st3{fill:#202020;}
	.st4{fill:#FFFFFF;}
	.st5{font-family:'TimesNewRomanPS-BoldMT';}
	.st6{font-size:41.923px;}
	.st7{letter-spacing:1;}
	.st8{fill:#949035;}
	.st9{font-size:255.7706px;}
</style>
<title>status update</title>
<g>
	<path id="svg_1_1_" class="st0" d="M789.1,114.7c-86.7,0.7-170.1-18.9-249.7-40.8S380.7,27.5,295.6,17.5
		c-54.7-6.5-116.9-5.5-159.9,19.6c-41.4,24.1-53.6,63.6-59.6,100.1c-4.5,27.4-6.8,56.2,9.2,81.2c11.1,17.3,30.3,31.5,43.7,48
		c46.9,57.4,17.8,131.3-28.7,190.6c-21.8,27.8-47.3,54.5-63.9,84c-16.6,29.4-23.5,62.7-7.1,91.4c16.3,28.5,53.4,49.1,93.3,63.1
		c81,28.4,175.5,34,267.5,35.8c203.7,4,407.8-8.1,611.5-20.2c75.4-4.5,151.1-9,224.9-21c41-6.7,83.3-16.5,112.5-37.5
		c37.1-26.7,45-70,18.4-100.9c-44.6-51.8-163-60.9-194.9-117.1c-17.5-30.9-1.9-66.6,20.8-96.7c49-64.5,132.8-122.6,134.8-194.5
		c1.4-49.3-41.7-97.2-106.3-118.2C1144.1,3,1051.5,9.4,1003.6,51.6C954.4,94.9,865.7,114.1,789.1,114.7z"/>
	<g class="st1">
		<defs>
			<rect id="SVGID_1_" x="132.4" y="60.9" class="st1" width="320.8" height="490.2"/>
		</defs>
		<clipPath id="SVGID_2_">
			<use xlink:href="#SVGID_1_"  style="overflow:visible;"/>
		</clipPath>
		<g class="st2">
			<path d="M429.4,629.8l-2-3.4l-24.9-181.2c3.7-0.4,10.1-2.4,14-10.7c3.9-7.8,6.1-12.4,5.7-28.1c0-8-1.9-19.7-8.9-30.3
				c-1.3-1.8-4.1-7.7-21.2-6.2l-17.8-129.3l-42.4-39.4l-4.5-123.8l-3.5,121.5l-52.5,40.9l-4.4,35c-2.8-1.9-7.7-3.8-16.1-3.8
				c-16.4,0-56.8,0-56.8,0s-13-3.4-26.3,16.8c-3.6,6.1-17.5,28.9-8.8,71.2c2,7.2,8.1,36.5,33.2,39.7c9.5,0,45.6,0,59,0l-29.3,231.1
				h99.5l-75-42.8l76.5-34.6l-0.3,77.4H429.4z M420,626.1l-42.4,0.3l41.1-16.2L420,626.1z M415.3,586.7l-73.4-42.4l63-28.3
				L415.3,586.7z M338.9,539.5c0,0-8.4,4.8-8.8-2l0.3-72.7l17.5-4.3l53.6,30.8l2,17.7L338.9,539.5z M330.1,459.8l0.3-9.8l10.1,6.1
				L330.1,459.8z M394.8,444.9l5.7,38.4L355.4,458L394.8,444.9z M384.7,370.4l-18.2,0.3l19.2-6.8L384.7,370.4z M330.1,374.7v-48.5
				l54.6,32.1L330.1,374.7z M355.7,373.7c-0.3,0.1-0.6,0.2-0.9,0.3c-4,1.7-7.2,9.3-7.2,9.3l-8.1-4.8c0,0,8.6-2.5,15.3-4.5
				C355.1,373.8,355.4,373.7,355.7,373.7z M382,350.2l-44.1-25.7l38.7-13.4L382,350.2z M283.7,299.2l38.2,22.2l-33,10.8
				C288.9,332.2,291.1,314.9,283.7,299.2z M375.6,296.5l-41.1-24.2l35.7-11.1L375.6,296.5z M331.4,209.4l36,32.3v14.1l-37.1,12.1
				L331.4,209.4z M376.2,304.3l-45.8,15.6l-0.7-43.7L376.2,304.3z M330.1,380l15.2,10.1c0,0-12.5,62.9,28.6,55.3
				c-11.1,3.5-25.3,8.8-25.3,8.8l-19.2-11.6L330.1,380z M337.8,548.6c12.5,7.3,78.2,46.2,78.2,46.2v11.1l-54.9,20.4h-31.3l-1-74.2
				C328.8,552.2,327.7,544.3,337.8,548.6z M279.2,289.9l44.1-14.1v40.4L279.2,289.9z M323,369.2l-34.4-20.7l0.7-11.4l33-10.1
				L323,369.2z M323,207.9v57.8l-41.4-25L323,207.9z M278.2,245.5l42.1,25l-47.2,14.4L278.2,245.5z M287.7,353.8l36.7,22.7
				c0,0-41.1,13.1-59.6,18.9C287.3,376.7,287.7,353.8,287.7,353.8z M323,382.8l-0.3,56.3L260,402.5L323,382.8z M323,466.1l-0.3,66.9
				l-73.8-42.4L323,466.1z M257.7,407.3l65,38.1V462l-74.8,21.5L257.7,407.3z M302.8,626.4c0,0-72.6,0-73.4,0l4-32.6
				c0,0-1.3-7.1,9.8-1.3C254.3,598.3,302.8,626.4,302.8,626.4z M319.7,548.1c0,0-66.7,30.3-76.1,34.6s-8.4-4.3-8.4-4.3l11.1-83.3
				c0,0,67.4,39.6,70.4,41.1c3,1.5,6.7,2.8,6.4,6.6S319.7,548.1,319.7,548.1z"/>
			<ellipse class="st3" cx="193.2" cy="334.2" rx="35.3" ry="62.4"/>
			<ellipse class="st3" cx="399.7" cy="407.9" rx="20" ry="36.1"/>
		</g>
	</g>
	<text transform="matrix(1 0 0 1 192.7148 607.9854)"><tspan x="0" y="0" class="st4 st5 st6 st7">M.D. TAMBUNGUI SPECIALIST (MDTS) INC.</tspan><tspan x="0" y="50.3" class="st4 st5 st6 st7">TELECOMMUNICATION CONTRACTOR</tspan></text>
	<g>
		<g>
			<path class="st8" d="M591.8,490.2l105.7-27.9h68.9l-2.5,1.2h-5.5c-5,0-9.5,0.2-13.4,0.7c-2.7,0.3-5.4,0.8-8.1,1.5
				c-2,0.5-5.2,1.8-9.7,3.9l-59.8,27.9c-4.6,2.2-7.1,3.5-7.3,4.1c-0.2,0.5,0.6,1,2.6,1.4c2,0.4,5.3,0.6,10.1,0.6h5.5l-2.5,1.2h-88.4
				l2.5-1.2h5.5c5,0,9.5-0.2,13.4-0.7c2.7-0.3,5.4-0.8,8.2-1.5c2-0.5,5.3-1.8,9.8-3.9L694,466l-147.7,38.6h-3l16.2-38.3l-63.9,29.8
				c-4.5,2.1-7,3.4-7.6,3.8c-1.1,1-0.6,1.9,1.6,2.5c2.2,0.7,7.2,1,14.9,1l-2.5,1.2h-57.9l2.5-1.2h1.7c3.7,0,7.5-0.1,11.5-0.5
				c3.9-0.3,7.3-0.8,10.1-1.3c2.8-0.5,5.7-1.3,8.8-2.3c0.7-0.2,3-1.3,7.1-3.2l57.4-26.7c4.6-2.1,7-3.5,7.2-4c0.2-0.5-0.7-1-2.6-1.4
				c-2-0.4-5.3-0.6-10.1-0.6h-5.4l2.5-1.2H604L591.8,490.2z"/>
			<path class="st8" d="M683.8,504.6l2.5-1.2h5.6c4.9,0,9.1-0.2,12.5-0.6c3.4-0.4,6.5-0.9,9.2-1.6c1.7-0.4,4.9-1.7,9.5-3.9
				l59.6-27.8c4.6-2.2,7.1-3.5,7.3-4.1c0.2-0.5-0.6-1-2.5-1.4c-1.9-0.4-5.3-0.6-10-0.6H772l2.5-1.2h75.8c20.2,0,35,0.7,44.4,2.1
				c11.5,1.7,17.4,4.2,17.9,7.6c0.5,3.4-3.9,7.3-13.1,11.6c-6.4,3-14.2,5.7-23.4,8.2c-9.2,2.5-18.6,4.6-28.2,6.2
				c-9.6,1.6-19.4,2.9-29.5,3.9c-10.1,1-21.4,1.8-34.1,2.3c-5.6,0.2-13.9,0.4-24.8,0.4H683.8z M833.9,464.7l-70.7,33
				c-3.7,1.7-5.7,2.8-5.9,3.2c-0.2,0.4,0.3,0.7,1.4,0.9c1.6,0.3,4.5,0.5,8.7,0.5c13.9,0,27.1-1.2,39.5-3.6
				c16.9-3.2,32.5-8.2,46.9-14.9c11.6-5.4,17.5-9.8,17.6-13c0-2.5-3.2-4.3-9.8-5.2C857.1,465,847.8,464.7,833.9,464.7z"/>
			<path class="st8" d="M1117.2,462.3l-24.5,11.4h-4.5c3-2.6,4.1-4.5,3.3-5.7c-0.8-1.2-3.3-2.1-7.4-2.8c-2.4-0.4-7.5-0.6-15.4-0.6
				H1056l-69.9,32.6c-4.6,2.2-7.1,3.5-7.3,4.1c-0.2,0.5,0.7,1,2.6,1.4c1.9,0.4,5.3,0.6,10.1,0.6h5.6l-2.5,1.2H906l2.5-1.2h5.6
				c4.9,0,9.3-0.2,13.3-0.7c2.8-0.3,5.6-0.8,8.3-1.5c2-0.5,5.3-1.8,9.8-3.9l69.9-32.6h-12.2c-11.4,0-21,0.6-28.7,1.8
				c-10.9,1.7-20.6,4.1-29.2,7.2h-4.7l24.5-11.4H1117.2z"/>
			<path class="st8" d="M1248.6,461.3l-28.8,14.1h-5.1c5.2-3.5,5.3-6.4,0.5-8.5c-4.8-2.2-12.8-3.2-23.7-3.2
				c-8.5,0-16.4,0.6-23.8,1.7c-7.4,1.1-12.7,2.4-15.8,3.9c-2,0.9-2.9,1.8-2.7,2.5c0.3,1,2.1,1.9,5.4,2.9c2.4,0.7,8.9,1.9,19.3,3.6
				c14.6,2.4,23,4.7,25.3,6.9c2.2,2.2,0.3,4.6-5.7,7.4c-7.6,3.5-19.6,6.6-36.1,9.1c-16.5,2.5-33.2,3.8-50.2,3.8
				c-5.3,0-10.1-0.1-14.2-0.4c-4.2-0.3-9-0.8-14.6-1.5c-3.1-0.4-5.9-0.6-8.5-0.6c-2.2,0-4.9,0.2-8.2,0.6c-3.3,0.4-6.6,1-9.9,1.9
				h-4.6l34.2-16h4.6c-6,4.5-6.3,7.9-0.9,10.3c5.4,2.4,14.1,3.5,26.2,3.5c9.3,0,18.1-0.6,26.4-1.9c8.3-1.3,14.2-2.7,17.8-4.4
				c2.1-1,3.2-2,3-2.9c-0.1-0.9-1.4-1.8-4-2.7c-2.5-0.8-7.8-1.9-15.9-3.3c-11.3-1.9-19-3.5-22.9-4.8c-3.9-1.3-5.9-2.8-6-4.5
				c-0.1-1.6,2-3.4,6.2-5.4c7.2-3.4,18.3-6.2,33.3-8.6c15-2.4,30-3.6,45.1-3.6c5.5,0,10.5,0.2,14.9,0.5c3.4,0.2,7.2,0.7,11.3,1.4
				c4.2,0.7,7.4,1,9.6,1c2.2,0,4.2-0.2,6.2-0.5c2-0.3,4.8-1.1,8.6-2.4H1248.6z"/>
		</g>
		<text transform="matrix(1 0 0 1 439.7803 505.3672)" class="st5 st9">MDTS</text>
	</g>
</g>
</svg>
